…
# First 10 rows of tidy dataset
print(clean_df, 10)
```

    ## # A tibble: 160 x 4
    ##    arm   subject_id  week observation
    ##    <chr> <chr>      <dbl>       <dbl>
    ##  1 con   01             1        0.2 
    ##  2 con   01             2       -1.31
    ##  3 con   01             3        0.66
    ##  4 con   01             4        1.96
    ##  5 con   01             5        0.23
    ##  6 con   01             6        1.09
    ##  7 con   01             7        0.05
    ##  8 con   01             8        1.94
    ##  9 con   02             1        1.13
    ## 10 con   02             2       -0.88
    ## # ... with 150 more rows
…
# Summarize within cities to find number of unsolved crimes
unsolv_hom_data = new_hom_data %>% 
  filter(disposition == "Closed without arrest" | disposition == "Open/No arrest") %>% 
  group_by(city_state) %>% 
  summarize(unsolved_homicides = n())
  
# Join datasets
city_hom_data = left_join(tot_hom_data, unsolv_hom_data, by = "city_state")

# First 10 rows of resulting dataset
print(city_hom_data, 10)
```

    ## # A tibble: 51 x 3
    ##    city_state     total_homicide unsolved_homicides
    ##    <chr>                   <int>              <int>
    ##  1 Albuquerque,NM            378                146
    ##  2 Atlanta,GA                973                373
    ##  3 Baltimore,MD             2827               1825
    ##  4 Baton Rouge,LA            424                196
    ##  5 Birmingham,AL             800                347
    ##  6 Boston,MA                 614                310
    ##  7 Buffalo,NY                521                319
    ##  8 Charlotte,NC              687                206
    ##  9 Chicago,IL               5535               4073
    ## 10 Cincinnati,OH             694                309
    ## # ... with 41 more rows
…
